<?xml version="1.0" encoding="UTF-8" standalone="no"?>
<svg
   xmlns:dc="http://purl.org/dc/elements/1.1/"
   xmlns:cc="http://creativecommons.org/ns#"
   xmlns:rdf="http://www.w3.org/1999/02/22-rdf-syntax-ns#"
   xmlns:svg="http://www.w3.org/2000/svg"
   xmlns="http://www.w3.org/2000/svg"
   xmlns:sodipodi="http://sodipodi.sourceforge.net/DTD/sodipodi-0.dtd"
   xmlns:inkscape="http://www.inkscape.org/namespaces/inkscape"
   version="1.1"
   x="0px"
   y="0px"
   viewBox="0 0 200 200"
   enable-background="new 0 0 32 32"
   xml:space="preserve"
   id="svg4180"
   sodipodi:docname="wrong_version.svg"
   width="200"
   height="200"
   inkscape:export-filename="/home/guillaume/Downloads/wrong_version.png"
   inkscape:export-xdpi="96"
   inkscape:export-ydpi="96"
   inkscape:version="0.92.5 (2060ec1f9f, 2020-04-08)"><metadata
     id="metadata4186"><rdf:RDF><cc:Work
         rdf:about=""><dc:format>image/svg+xml</dc:format><dc:type
           rdf:resource="http://purl.org/dc/dcmitype/StillImage" /><dc:title></dc:title></cc:Work></rdf:RDF></metadata><defs
     id="defs4184" /><sodipodi:namedview
     pagecolor="#ffffff"
     bordercolor="#666666"
     borderopacity="1"
     objecttolerance="10"
     gridtolerance="10"
     guidetolerance="10"
     inkscape:pageopacity="0"
     inkscape:pageshadow="2"
     inkscape:window-width="1920"
     inkscape:window-height="1056"
     id="namedview4182"
     showgrid="false"
     fit-margin-top="0"
     fit-margin-left="0"
     fit-margin-right="0"
     fit-margin-bottom="0"
     inkscape:zoom="1"
     inkscape:cx="-69.500328"
     inkscape:cy="108.42109"
     inkscape:window-x="0"
     inkscape:window-y="24"
     inkscape:window-maximized="0"
     inkscape:current-layer="svg4180" /><g
     display="none"
     id="g4120"
     style="display:none"
     transform="translate(0,168)"><g
       display="inline"
       id="g4108"
       style="display:inline"><circle
         cx="16"
         cy="16"
         r="16"
         id="circle4106"
         style="fill:#000000" /></g><circle
       display="inline"
       cx="16.290001"
       cy="21.832001"
       r="4.198"
       id="circle4110"
       style="display:inline" /><line
       display="inline"
       stroke-miterlimit="10"
       x1="13.424"
       y1="9.1239996"
       x2="8.316"
       y2="14.232"
       id="line4112"
       style="display:inline;fill:none;stroke:#000000;stroke-width:2;stroke-miterlimit:10" /><line
       display="inline"
       stroke-miterlimit="10"
       x1="8.316"
       y1="9.1239996"
       x2="13.424"
       y2="14.232"
       id="line4114"
       style="display:inline;fill:none;stroke:#000000;stroke-width:2;stroke-miterlimit:10" /><line
       display="inline"
       stroke-miterlimit="10"
       x1="23.684"
       y1="9.1239996"
       x2="18.576"
       y2="14.232"
       id="line4116"
       style="display:inline;fill:none;stroke:#000000;stroke-width:2;stroke-miterlimit:10" /><line
       display="inline"
       stroke-miterlimit="10"
       x1="18.576"
       y1="9.1239996"
       x2="23.684"
       y2="14.232"
       id="line4118"
       style="display:inline;fill:none;stroke:#000000;stroke-width:2;stroke-miterlimit:10" /></g><g
     display="none"
     id="g4132"
     style="display:none"
     transform="translate(0,168)"><circle
       display="inline"
       cx="16.290001"
       cy="21.832001"
       r="4.198"
       id="circle4122"
       style="display:inline;fill:#000000" /><rect
       x="7.2579999"
       y="10.679"
       transform="matrix(0.7071,-0.7071,0.7071,0.7071,-5.0741,11.1069)"
       display="inline"
       width="7.223"
       height="2"
       id="rect4124"
       style="display:inline;fill:#000000" /><rect
       x="9.8699999"
       y="8.0670004"
       transform="matrix(0.7071,-0.7071,0.7071,0.7071,-5.0741,11.1061)"
       display="inline"
       width="2"
       height="7.223"
       id="rect4126"
       style="display:inline;fill:#000000" /><rect
       x="17.518"
       y="10.679"
       transform="matrix(0.7071,-0.7071,0.7071,0.7071,-2.0691,18.3616)"
       display="inline"
       width="7.223"
       height="2"
       id="rect4128"
       style="display:inline;fill:#000000" /><rect
       x="20.129999"
       y="8.0670004"
       transform="matrix(0.7071,-0.7071,0.7071,0.7071,-2.0694,18.3605)"
       display="inline"
       width="2"
       height="7.223"
       id="rect4130"
       style="display:inline;fill:#000000" /></g><g
     display="none"
     id="g4136"
     style="display:none"
     transform="translate(0,168)"><rect
       x="-254.66701"
       y="-8.3330002"
       display="inline"
       width="416.33301"
       height="207.66701"
       id="rect4134"
       style="display:inline;fill:#000000" /></g><g
     id="g4146"
     transform="scale(6.25)"
     style="fill:#43aa8b;fill-opacity:1"><circle
       cx="16.290001"
       cy="21.832001"
       r="4.198"
       id="circle4138"
       style="fill:#43aa8b;fill-opacity:1" /><polygon
       points="12.717,8.417 10.87,10.264 9.023,8.417 7.609,9.832 9.456,11.678 7.609,13.525 9.023,14.939 10.87,13.093 12.717,14.939 14.131,13.525 12.284,11.678 14.131,9.832 "
       id="polygon4140"
       style="fill:#43aa8b;fill-opacity:1" /><polygon
       points="19.716,11.678 17.869,13.525 19.283,14.939 21.13,13.093 22.977,14.939 24.391,13.525 22.544,11.678 24.391,9.832 22.977,8.417 21.13,10.264 19.283,8.417 17.869,9.832 "
       id="polygon4142"
       style="fill:#43aa8b;fill-opacity:1" /><path
       d="M 27.488,0 H 4.512 C 2.024,0 0,2.024 0,4.512 V 27.489 C 0,29.976 2.024,32 4.512,32 H 27.489 C 29.976,32 32,29.976 32,27.488 V 4.512 C 32,2.024 29.976,0 27.488,0 Z M 30,27.488 C 30,28.873 28.873,30 27.488,30 H 4.512 C 3.127,30 2,28.873 2,27.488 V 4.512 C 2,3.127 3.127,2 4.512,2 H 27.489 C 28.873,2 30,3.127 30,4.512 Z"
       id="path4144"
       inkscape:connector-curvature="0"
       style="fill:#43aa8b;fill-opacity:1" /></g><g
     display="none"
     id="g4150"
     style="display:none"
     transform="translate(0,168)"><path
       display="inline"
       d="M 27.488,0 H 4.512 C 2.024,0 0,2.024 0,4.512 V 27.489 C 0,29.976 2.024,32 4.512,32 H 27.489 C 29.976,32 32,29.976 32,27.488 V 4.512 C 32,2.024 29.976,0 27.488,0 Z M 9.023,14.939 7.609,13.525 9.456,11.678 7.609,9.832 9.023,8.418 l 1.847,1.847 1.847,-1.847 1.414,1.414 -1.847,1.847 1.847,1.847 -1.414,1.414 -1.847,-1.847 z m 7.267,11.092 c -2.319,0 -4.198,-1.88 -4.198,-4.198 0,-2.319 1.88,-4.198 4.198,-4.198 2.319,0 4.198,1.88 4.198,4.198 0.001,2.318 -1.879,4.198 -4.198,4.198 z m 8.101,-12.506 -1.414,1.414 -1.847,-1.847 -1.847,1.847 -1.414,-1.414 1.847,-1.847 -1.847,-1.847 1.414,-1.414 1.847,1.847 1.847,-1.847 1.414,1.414 -1.847,1.847 z"
       id="path4148"
       inkscape:connector-curvature="0"
       style="display:inline" /></g><g
     display="none"
     id="g4168"
     style="display:none"
     transform="translate(0,168)"><g
       display="inline"
       id="g4156"
       style="display:inline"><path
         d="M 16,31 C 7.729,31 1,24.271 1,16 1,7.729 7.729,1 16,1 c 8.271,0 15,6.729 15,15 0,8.271 -6.729,15 -15,15 z"
         id="path4152"
         inkscape:connector-curvature="0"
         style="fill:#000000" /><path
         d="M 16,2 C 23.72,2 30,8.28 30,16 30,23.72 23.72,30 16,30 8.28,30 2,23.72 2,16 2,8.28 8.28,2 16,2 M 16,0 C 7.163,0 0,7.163 0,16 0,24.837 7.163,32 16,32 24.837,32 32,24.837 32,16 32,7.163 24.837,0 16,0 Z"
         id="path4154"
         inkscape:connector-curvature="0"
         style="fill:#000000" /></g><circle
       display="inline"
       cx="16.290001"
       cy="21.832001"
       r="4.198"
       id="circle4158"
       style="display:inline;fill:#000000" /><rect
       x="7.2579999"
       y="10.679"
       transform="matrix(0.7071,-0.7071,0.7071,0.7071,-5.0741,11.1069)"
       display="inline"
       width="7.223"
       height="2"
       id="rect4160"
       style="display:inline;fill:#000000" /><rect
       x="9.8699999"
       y="8.0670004"
       transform="matrix(0.7071,-0.7071,0.7071,0.7071,-5.0741,11.1061)"
       display="inline"
       width="2"
       height="7.223"
       id="rect4162"
       style="display:inline;fill:#000000" /><rect
       x="17.518"
       y="10.679"
       transform="matrix(0.7071,-0.7071,0.7071,0.7071,-2.0691,18.3616)"
       display="inline"
       width="7.223"
       height="2"
       id="rect4164"
       style="display:inline;fill:#000000" /><rect
       x="20.129999"
       y="8.0670004"
       transform="matrix(0.7071,-0.7071,0.7071,0.7071,-2.0694,18.3605)"
       display="inline"
       width="2"
       height="7.223"
       id="rect4166"
       style="display:inline;fill:#000000" /></g><g
     display="none"
     id="g4174"
     style="display:none"
     transform="translate(0,168)"><g
       display="inline"
       id="g4172"
       style="display:inline"><path
         d="M 16,0 C 7.163,0 0,7.163 0,16 0,24.837 7.163,32 16,32 24.837,32 32,24.837 32,16 32,7.163 24.837,0 16,0 Z M 7.609,12.525 9.456,10.678 7.609,8.832 9.023,7.418 l 1.847,1.847 1.847,-1.847 1.414,1.414 -1.847,1.847 1.847,1.847 -1.414,1.414 -1.847,-1.847 -1.847,1.847 z m 8.681,13.506 c -2.319,0 -4.198,-1.88 -4.198,-4.198 0,-2.319 1.88,-4.198 4.198,-4.198 2.319,0 4.198,1.88 4.198,4.198 0.001,2.318 -1.879,4.198 -4.198,4.198 z m 8.101,-13.506 -1.414,1.414 -1.847,-1.847 -1.847,1.847 -1.414,-1.414 1.847,-1.847 -1.847,-1.847 1.414,-1.414 1.847,1.847 1.847,-1.847 1.414,1.414 -1.847,1.847 z"
         id="path4170"
         inkscape:connector-curvature="0"
         style="fill:#000000" /></g></g></svg>